…
``` r
napoleon_df %>% 
  mutate(reviews = map(urls, get_page_reviews)) %>% 
  select(reviews) %>% 
  unnest()
```

    ## Warning: `cols` is now required when using unnest().
    ## Please use `cols = c(reviews)`

    ## # A tibble: 50 x 3
    ##    title                                                 stars   text           
    ##    <chr>                                                 <chr>   <chr>          
    ##  1 it was                                                5.0 ou~ "\n  mad good ~
    ##  2 Fun!                                                  4.0 ou~ "\n  Fun and e~
    ##  3 Vintage                                               5.0 ou~ "\n  Easy to o~
    ##  4 too many commercials                                  1.0 ou~ "\n  5 minutes~
    ##  5 this film is so good!                                 5.0 ou~ "\n  VOTE FOR ~
    ##  6 Good movie                                            5.0 ou~ "\n  Weird sto~
    ##  7 I Just everyone to know this....                      5.0 ou~ "\n  VOTE FOR ~
    ##  8 the cobweb in his hair during the bike ramp scene lol 5.0 ou~ "\n  5 stars f~
    ##  9 Best quirky movie ever                                5.0 ou~ "\n  You all k~
    ## 10 Classic Film                                          5.0 ou~ "\n  Had to or~
    ## # ... with 40 more rows
