…
``` r
base_url = "https://www.amazon.com/product-reviews/B00005JNBQ/ref=cm_cr_arp_d_viewopt_rvwer?ie=UTF8&reviewerType=avp_only_reviews&sortBy=recent&pageNumber="

urls = str_c(base_url, 1:5)

bind_rows(
  get_page_reviews(urls[1]),
  get_page_reviews(urls[2]),
  get_page_reviews(urls[3]),
  get_page_reviews(urls[4]),
  get_page_reviews(urls[5]))
```

    ## # A tibble: 50 x 3
    ##    title                                                 stars   text           
    ##    <chr>                                                 <chr>   <chr>          
    ##  1 Vintage                                               5.0 ou~ "\n  Easy to o~
    ##  2 too many commercials                                  1.0 ou~ "\n  5 minutes~
    ##  3 this film is so good!                                 5.0 ou~ "\n  VOTE FOR ~
    ##  4 Good movie                                            5.0 ou~ "\n  Weird sto~
    ##  5 I Just everyone to know this....                      5.0 ou~ "\n  VOTE FOR ~
    ##  6 the cobweb in his hair during the bike ramp scene lol 5.0 ou~ "\n  5 stars f~
    ##  7 Best quirky movie ever                                5.0 ou~ "\n  You all k~
    ##  8 Classic Film                                          5.0 ou~ "\n  Had to or~
    ##  9 hehehehe                                              5.0 ou~ "\n  goodjobbo~
    ## 10 Painful                                               1.0 ou~ "\n  I think I~
    ## # ... with 40 more rows
